%YAML 1.1
%TAG !u! tag:unity3d.com,2011:
--- !u!114 &11400000
MonoBehaviour:
  m_ObjectHideFlags: 0
  m_CorrespondingSourceObject: {fileID: 0}
  m_PrefabInstance: {fileID: 0}
  m_PrefabAsset: {fileID: 0}
  m_GameObject: {fileID: 0}
  m_Enabled: 1
  m_EditorHideFlags: 0
  m_Script: {fileID: 11500000, guid: b9f680a8add3322468db1101f91dc175, type: 3}
  m_Name: A5
  m_EditorClassIdentifier: 
  titleText: Hospital bedroom
  storyText: "The doctor say that  you don't have time to pointless questions and
    you have to go to surgery room  for a cerebral surgery .\r\n\r\n1.Run naked out
    of the hostpital before the sugery\r\n\r\n2.Go to the surgery room\r\n\r\npush
    'q' to restart."
  nextStates:
  - {fileID: 11400000, guid: 40d768654fcf51246b654887e7940269, type: 2}
  - {fileID: 11400000, guid: b22d8676e5c40de40890bcbe99440868, type: 2}
